The Vast Challenge: Building the Charts
…
sample_n(tf_idf,5)

# A tibble: 130 x 6
# Groups:   SOURCE [26]
   SOURCE         word           n      tf   idf  tf_idf
   <chr>          <chr>      <int>   <dbl> <dbl>   <dbl>
 1 All News Today cleanup        3 0.00291 2.16  0.00628
 2 All News Today didn           3 0.00291 2.16  0.00628
 3 All News Today protectors    15 0.0145  0.486 0.00706
 4 All News Today series         4 0.00388 1.65  0.00640
 5 All News Today henk           4 0.00388 1.47  0.00569
 6 Athena Speaks  flight         4 0.00354 3.26  0.0115 
 7 Athena Speaks  carol          7 0.00619 3.26  0.0202 
 8 Athena Speaks  dob           11 0.00973 1.47  0.0143 
 9 Athena Speaks  elan           6 0.00531 3.26  0.0173 
10 Athena Speaks  shown         12 0.0106  2.16  0.0229 
# ... with 120 more rows
…
